order_id;tanggal;fullname;alamat;kota;kodepos;phone;email;qty;via;ongkoskirim;totaltransfer;order_items
6500;28/04/2018;nadia ofelia;JL.MANGGIS 2/B3 No.15A RT.04/RW.06 .TANJUNG DUREN UTARA.;Grogol, Kota Administrasi Jakarta Barat;11470;6,28789E+12;nadiaofeliaa@rocketmail.com;1;JNE Shipping REG ( 1 - 2 hari );9.000;98.145;Indigo (Roy Kiyoshi)
6501;28/04/2018;dyah arlyan pmp;tiketing lion air bandara adi sucipto;Depok, Kab. Sleman;55182;85878777856;dyaharlalyan4867@gmail.com;1;JNE Shipping REG ( 2 - 3 hari );21.000;110.196;Indigo (Roy Kiyoshi)
6502;28/04/2018;Wanty Haryono;Jl. Bukit Pakar Timur IV No. 76, RT 02/RW 03, Desa Ciburial, Kec. Cimenyan, Bandung 40198;Cimenyan, Kab. Bandung;40198;81910006676;wanty.linderholm@yahoo.co.id;1;JNE Shipping REG ( 1 - 2 hari );11.000;100.132;Indigo (Roy Kiyoshi)
6503;28/04/2018;Elfie Sunjaya;Jalan Jeruk No 48A, RT/RW:009/-;Dumai Barat, Kota Dumai;28823;85271353888;elfie.sunjaya@gmail.com;1;JNE Shipping REG ( 2 - 3 hari );39.000;128.142;Indigo (Roy Kiyoshi)
6505;28/04/2018;Liliyana Chandra;Jalan shima gang jawi RT 02/RW 06 Pengkol Jepara Kodepos 59415;Jepara, Kab. Jepara;59415;82228119291;liliyanachandra12@gmail.com;1;JNE Shipping REG ( 2 - 3 hari );21.000;110.172;Indigo (Roy Kiyoshi)
6507;28/04/2018;Berlina Slamet;Apartemen City Park, cengkareng, palem - jakarta barat;Cengkareng, Kota Administrasi Jakarta Barat;11640;81294872724;berlinaslamet05@gmail.com;1;JNE Shipping REG ( 1 - 2 hari );9.000;98.154;Indigo (Roy Kiyoshi)
6508;28/04/2018;Felicia kristanty;Mediterania boulevard cluster venice 2 no 20;Penjaringan, Kota Administrasi Jakarta Utara;14360;8119591812;feliciakristanty@gmail.com;1;JNE Shipping REG ( 1 - 2 hari );9.000;98.159;Indigo (Roy Kiyoshi)
6509;28/04/2018;Lianora Sinaga;Jl. R. A Kartini no 53 palu kel. Lolu utara;Palu Selatan, Kota Palu;94112;82315795556;lianorasinaga@gmail.com;1;JNE Shipping REG ( 2 - 3 hari );44.000;107.796;Sean & Valeria Platinum Edition
6511;28/04/2018;Ifanna Ifanna;Jl. Umar No. 105 - 107 (Pintu Kuning);Medan Timur, Kota Medan;20239;81361010518;ifanna89@gmail.com;1;JNE Shipping REG ( 1 - 2 hari );30.000;119.104;Indigo (Roy Kiyoshi)
6512;28/04/2018;Vallen Valerian;Jl.Babusalam Rw.gempol Rt003/005 no.17 kampung melayu timur/teluknaga;Teluknaga, Kab. Tangerang;15510;89652306958;valerianvallen@gmail.com;1;JNE Shipping REG ( 1 - 2 hari );9.000;98.131;Indigo (Roy Kiyoshi)
6513;28/04/2018;WAWA NOORLITA;PT. SEPATU BATA Tbk, Jl Raya Cibening, Ds.Cibening, Kec.Bungursari;Bungursari, Kab. Purwakarta;41181;6,2819E+12;antarz.hijab@gmail.com;1;JNE Shipping REG ( 3 - 6 hari );18.000;107.130;Indigo (Roy Kiyoshi)
6514;28/04/2018;Resita Rahmadani;Jl. Holis Gang Hasan Marwi rt. 1/rw. 8 kel. Warung muncang - cibuntu tengah, Bandung Kulon kota Bandung;Bandung Kulon, Kota Bandung;40211;82315830162;resitarahmadani20@gmail.com;1;JNE Shipping REG ( 1 - 2 hari );11.000;100.155;Indigo (Roy Kiyoshi)
6515;28/04/2018;Lisha Chen;Jl. Gajah Mada Pajak Beringin no 12, Kuala;Kuala, Kab. Langkat;20772;82277308366;lisha_chenz@yahoo.com;1;JNE Shipping REG ( 3 - 6 hari );50.000;139.129;Indigo (Roy Kiyoshi)
6516;28/04/2018;yen lin;jl.cempaka no. 17;Perbaungan, Kab. Serdang Bedagai;20986;82166006000;akimiree@gmail.com;1;JNE Shipping REG ( 3 - 6 hari );50.000;139.118;Indigo (Roy Kiyoshi)
6517;28/04/2018;Alma Savilla Azis;Jalan cipulir V no.9 rt 07 rw 08 cipulir;Kebayoran Lama, Kota Administrasi Jakarta Selatan;12230;85710057150;azisdapo@gmail.com;1;JNE Shipping REG ( 1 - 2 hari );9.000;98.127;Indigo (Roy Kiyoshi)
6518;28/04/2018;irene monica;Jln. H.o.S. Cokroaminoto No. 445. Pontianak;Pontianak Barat, Kota Pontianak;78117;81345540958;reginaangelorum09@gmail.com;1;JNE Shipping REG ( 1 - 2 hari );30.000;119.116;Indigo (Roy Kiyoshi)
6520;28/04/2018;Siti Fatimah;Jalan Kampung Belakang Sahabat No 32 RT 006 RW 005 Kamal;Kalideres, Kota Administrasi Jakarta Barat;11810;81218650484;ochinochan13@yahoo.co.id;1;JNE Shipping REG ( 1 - 2 hari );9.000;152.746;Cla | My Sexy Roommate + Gelas Enamel
6521;28/04/2018;Nuri (+85298667547) Yati;RT 08/RW 011;Cengkareng, Kota Administrasi Jakarta Barat;11720;82110686817;maharani082001@gmail.com;1;JNE Shipping REG ( 1 - 2 hari );9.000;98.167;Indigo (Roy Kiyoshi)
6522;28/04/2018;Filzati Arvyra;Jl. H ibrahim perum. amuntai blok. G no.13 Rt.11;Kota Baru, Kota Jambi;36129;6,28228E+12;filzariarvy@gmail.com;1;JNE Shipping REG ( 1 - 2 hari );22.000;81.730;Ardhan
6523;28/04/2018;Arifin Arifin;Jln kotanopan ll no 32,Medan;Medan Kota, Kota Medan;20212;8126535568;wilbertnyoman@gmail.com;1;JNE Shipping REG ( 1 - 2 hari );30.000;119.154;Indigo (Roy Kiyoshi)
6525;28/04/2018;BORNEO. iGAMERs;Jl. KH Agus Salim Rt. 4 No. 42 Gunung Bata Selumit Dalam (Samping Fotocopy Cikal Depan DPC Gerindra);Tarakan, Kota Tarakan;77113;85252845252;borneo.igamers@gmail.com;1;JNE Shipping REG ( 2 - 3 hari );54.000;143.173;Indigo (Roy Kiyoshi)
6526;28/04/2018;dinda ketshi pratiwi;Jl Sendang 2, rt 28 rw 13 kriyanan, wates,kulon progo, diy;Wates, Kab. Kulon Progo;55611;81328689689;dindaketshi3@gmail.com;1;JNE Shipping REG ( 2 - 3 hari );21.000;110.183;Indigo (Roy Kiyoshi)
6527;28/04/2018;Novi Ta;Jalan Husein Sastranegara Komplek Pergudangan Nusa Indah Blok C 39;Benda, Kota Tangerang;15124;87786124246;novitaafianti90@yahoo.com;1;JNE Shipping REG ( 1 - 2 hari );9.000;98.158;Indigo (Roy Kiyoshi)
6528;28/04/2018;Vita Diah;Jalan gunuk raya no. 22 rt 02 rw 03 pejaten timur jakarta selatan;Pasar Minggu, Kota Administrasi Jakarta Selatan;12530;8521234827;vitadiah77@gmail.com;1;JNE Shipping REG ( 1 - 2 hari );9.000;98.168;Indigo (Roy Kiyoshi)
6529;28/04/2018;Rikha Veronikha;Jl. Griya hamdan asri no 3 parakan saat -cingised bandung;Bandung, Kota Bandung;40291;85314732129;rikhaveronikha1994@gmail.com;1;JNE Shipping REG ( 1 - 2 hari );11.000;100.127;Indigo (Roy Kiyoshi)
6530;28/04/2018;yanita werdiningsih;kantor mentari autohouse . ruang meeting lt 2 . jl soekarno hatta no . 250 , Babakan Ciparay , Bandung;Babakanciparay, Kota Bandung;40211;85742075275;yanitawerdin12@gmail.com;1;JNE Shipping REG ( 1 - 2 hari );11.000;100.171;Indigo (Roy Kiyoshi)
6531;28/04/2018;Anissa Fatimah;Jl. Bayan 2 kp. Ciketing rt.002 rw.011. Mustikajaya bekasi timur;Bekasi Timur, Kota Bekasi;17158;82210319746;finance_gematek@yahoo.com;1;JNE Shipping REG ( 1 - 2 hari );9.000;98.192;Indigo (Roy Kiyoshi)
6532;28/04/2018;sandra dewi;comp.anggrek mas 1 block H80;Batam, Kota Batam;29432;81277011333;sandra.dewimok@gmail.com;1;JNE Shipping REG ( 1 - 2 hari );28.000;117.132;Indigo (Roy Kiyoshi)
6534;28/04/2018;Tetty Samsudin;Jl. Menari 29 RT 001 RW 001 Kel Kasin Kec Klojen Malang;Klojen, Kota Malang;65117;85100619614;tetty.samsudin.ayh@gmail.com;1;JNE Shipping REG ( 1 - 2 hari );22.000;111.189;Indigo (Roy Kiyoshi)
6535;28/04/2018;Vina Purnama Sari;Jalan pulo indah asri 1 no.7 RT 002/RW 04;Cipondoh, Kota Tangerang;15147;81295850850;tian_viena@yahoo.com;1;JNE Shipping REG ( 1 - 2 hari );9.000;98.179;Indigo (Roy Kiyoshi)
6538;28/04/2018;chevonne cyrano;jln teuku umar 15-17 tulungagung;Tulungagung, Kab. Tulungagung;66211;85335026053;normacandrawati@ymail.Com;1;JNE Shipping REG ( 2 - 3 hari );24.000;113.192;Indigo (Roy Kiyoshi)
6539;28/04/2018;Margareta Kristanti;Jalan Simpang Dirgantara VIII B9 No 6 Malang Rt 02 Rw 10;Kedungkandang, Kota Malang;65138;82143236248;margarethchan.mc@gmail.com;1;JNE Shipping REG ( 1 - 2 hari );22.000;111.140;Indigo (Roy Kiyoshi)
6541;28/04/2018;Erlinda Halim;Toko Surya Jaya. Jln. Diponegoro 19a. Kota Palopo (Sul-Sel) Kel. Batupasi. Kec. Wara Utara. Rt/Rw : 005/002;Wara Utara, Kota Palopo;91911;82333339917;erlindahalim2@gmail.com;1;JNE Shipping REG ( 3 - 5 hari );52.000;141.110;Indigo (Roy Kiyoshi)
6542;28/04/2018;Henny Yang;jl. hr. subrantas no. 168 K;Tampan, Kota Pekanbaru;28294;85216562111;hennymmj10@gmail.com;1;JNE Shipping REG ( 1 - 2 hari );28.000;117.177;Indigo (Roy Kiyoshi)
6543;28/04/2018;Jessica Victory;Jl cipinang pulo maja no 37C RT015/011;Jatinegara, Kota Administrasi Jakarta Timur;13410;8121813026;emsi.sinaga@gmail.com;1;JNE Shipping REG ( 1 - 2 hari );9.000;98.111;Indigo (Roy Kiyoshi)
6544;28/04/2018;tinna putri cahyani;BMT KAHURIPAN, JL. HALMAHERA, NO.37, MOJAYAN, KLATEN TENGAH, KLATEN;Klaten Tengah, Kab. Klaten;57411;85799354025;putri_cempluk86@yahoo.com;1;JNE Shipping REG ( 2 - 3 hari );21.000;110.169;Indigo (Roy Kiyoshi)
6545;28/04/2018;Nurrahma hidayati Nurrahma;Rt :2 ,rw: 6;Kayu Aro, Kab. Kerinci;37163;82261948304;rahmahidayati951@gimal.com;1;JNE Shipping REG ( 10 hari );63.000;152.187;Indigo (Roy Kiyoshi)
6546;28/04/2018;Anggraini Sekar Puspitasari;Perumahan Kota Serang Baru Blok E.39 No.23 Rt.006/017, Desa Sukaragam, Kecamatan Serang Baru, Kabupaten Bekasi;Serang Baru, Kab. Bekasi;17331;82298153833;anggrainisekar54@gmail.com;1;JNE Shipping REG ( 1 - 2 hari );9.000;98.125;Indigo (Roy Kiyoshi)
6547;28/04/2018;Slamet Riyadi;Perum Panorama Indah Blok K1 No 5 Rt 92 Rw 12 Kel. Nagri kaler;Purwakarta, Kab. Purwakarta;41115;87729539062;sammckp@gmail.com;1;JNE Shipping REG ( 2 - 3 hari );14.000;114.131;EXO For You + Kaos
6549;28/04/2018;Chatharine Pranata;Taman Himalaya Jl. Gunung Rinjani No. 6;Karawaci, Kota Tangerang;15117;87885445763;misschath@ymail.com;1;JNE Shipping REG ( 1 - 2 hari );9.000;98.150;Indigo (Roy Kiyoshi)
6551;28/04/2018;Manik Agra;Jalan KS Tubun no 28;Tabanan, Kab. Tabanan;82114;6,2818E+11;manikagra@gmail.com;1;JNE Shipping REG ( 2 - 3 hari );28.000;99.737;KPOP Zaman Jigeum: Wanna One
6554;28/04/2018;Denis Pinasti;Denis pinasti;Karangmalang, Kab. Sragen;57222;81228507248;sunu.gumawang@icloud.com;1;JNE Shipping REG ( 3 - 6 hari );27.000;116.179;Indigo (Roy Kiyoshi)
6555;28/04/2018;keke leony;jalan darussalam gang turi 2 no. 11;Medan Petisah, Kota Medan;20119;8993413337;leonykeke@gmail.com;1;JNE Shipping REG ( 1 - 2 hari );30.000;119.188;Indigo (Roy Kiyoshi)
6556;28/04/2018;Farelina Wajdi;Jalan panyalai no 20 rt 01 rw 02 kampung baru;Lubuk Begalung, Kota Padang;25225;82385669838;farelina429@gmail.com;1;JNE Shipping REG ( 1 - 2 hari );28.000;99.674;KPOP Zaman Jigeum: Wanna One
6557;28/04/2018;Franciska Yuliana;Jln.marsda surya darma;Kota Baru, Kota Jambi;36128;811747155;franciskayuliana03@gmail.com;1;JNE Shipping REG ( 1 - 2 hari );22.000;111.155;Indigo (Roy Kiyoshi)
6558;28/04/2018;Mei Ho Suisa;Jalan Perak Blok B No. 20, Permata Hijau;Kebayoran Lama, Kota Administrasi Jakarta Selatan;12210;818980589;nathaniagun@gmail.com;1;JNE Shipping REG ( 1 - 2 hari );9.000;98.139;Indigo (Roy Kiyoshi)
6560;28/04/2018;Nurhayati Simbolon;Balo ditpam blok S no 39;Batam, Kota Batam;Nurha28;82390612541;nursim20@gmail.com;1;JNE Shipping REG ( 1 - 2 hari );28.000;88.125;EXO For You
6561;28/04/2018;Maxentia Justine;Jln.Bambu Kuning Blok CC.27;Tenayan Raya, Kota Pekanbaru;28281;85101633596;maxentiaajt25@gmail.com;1;JNE Shipping REG ( 1 - 2 hari );28.000;117.156;Indigo (Roy Kiyoshi)
6562;28/04/2018;Nurul Rahmi;Jln mangga no 10 kecamatan mamuju kab mamuju provinsi sulawesi barat;Mamuju, Kab. Mamuju;91511;6,28219E+12;nrlrhmi0@gmail.com;1;JNE Shipping REG ( 3 - 5 hari );52.000;141.161;Indigo (Roy Kiyoshi)
6563;28/04/2018;Eef Supriyatna;Dusun sukamampir RT.05 RW.01 Desa pabedilan kulon, Kec. Pabedilan Kab. Cirebon;Pabedilan, Kab. Cirebon;45193;6,28951E+12;eefsupriyatna71@gmail.com;1;JNE Shipping REG ( 3 - 6 hari );18.000;107.125;Indigo (Roy Kiyoshi)
6564;28/04/2018;Isnin Rohmah;Jl al amin v no 31 rt 11/06;Jakarta Timur, Kota Administrasi Jakarta Timur;13510;87886057707;isninrohmah28@gmail.com;1;JNE Shipping REG ( 1 - 2 hari );9.000;98.139;Indigo (Roy Kiyoshi)
6565;28/04/2018;Mega Raya astagina;Jln ikan cakalang gang 8 lingkungan ujung;Banyuwangi, Kab. Banyuwangi;68411;6,28953E+13;meiga.yogha@yahoo.com;1;JNE Shipping REG ( 2 - 3 hari );26.000;115.177;Indigo (Roy Kiyoshi)
6566;28/04/2018;Mega Surya agustin;Jln ikan cakalang gang 8 lingkungan ujung rt 02 rw 02;Banyuwangi, Kab. Banyuwangi;68411;6,28953E+13;meiga.yogha@yahoo.com;1;JNE Shipping REG ( 2 - 3 hari );26.000;115.177;Indigo (Roy Kiyoshi)
6567;28/04/2018;Ela Fitri Ayu;Jalan Tanjungsari Jaya Utara Gang: 8a No. 5A. RT 15 RW 02. Kel. Tanjungsari;Sukomanunggal, Kota Surabaya;60187;82257177077;ela_hhj_kjw@yahoo.com;2;JNE Shipping REG ( 1 - 2 hari );19.000;197.149;Indigo (Roy Kiyoshi)
6568;28/04/2018;Erza Hermawan;Jl. Sunan Giri No. 1 Rt 12/15 Kel. Rawamangun Kec. Pulogadung Jakarta Timur;Pulo Gadung, Kota Administrasi Jakarta Timur;13220;8561149310;erzacute@gmail.com;1;JNE Shipping REG ( 1 - 2 hari );9000;89.896;Hello Salma
6571;29/04/2018;Adrianus Handy;Rungkut asri barat 13 no 21;Rungkut, Kota Surabaya;60293;87852180369;dancing_cloudsid@yahoo.com;2;JNE Shipping REG ( 1 - 2 hari );38000;240.169;Indigo (Roy Kiyoshi) | r.i.s.a.r.a
6573;29/04/2018;Endi Hadianto;Biliton 45;Gubeng, Kota Surabaya;60281;81330717878;ptelangputih@gmall.com;1;JNE Shipping REG ( 1 - 2 hari );19000;108.172;Indigo (Roy Kiyoshi)
6574;29/04/2018;Grace Shella;Jelambar barat 3 no.12D RT12/11 jakarta 11460;Grogol, Kota Administrasi Jakarta Barat;11460;81911179900;gracesh95@yahoo.com;1;JNE Shipping REG ( 1 - 2 hari );9000;98.195;Indigo (Roy Kiyoshi)
6575;29/04/2018;Wilson Dharma;Jalan Jembatan dua Sinar Budi Gang Lontar RT 10 RW 03 NO 3;Penjaringan, Kota Administrasi Jakarta Utara;14450;85770275689;wilsondharma598@yahoo.com;1;JNE Shipping REG ( 1 - 2 hari );9000;98.169;Indigo (Roy Kiyoshi)
6576;29/04/2018;Masik jaya;jl. kalianak timur lebar no 179 RT 08 RW 07 kel. morokrembangan kec. krembangan;Krembangan, Kota Surabaya;60178;82139404057;masikvino72@gmail.com;1;JNE Shipping REG ( 1 - 2 hari );19000;108.107;Indigo (Roy Kiyoshi)
6578;29/04/2018;Felicya Fernanda;Jl. Raya tanjungpura no.2, Rt.07/09, (sblm lampumerah arah Dengklok);Karawang Barat, Kab. Karawang;41316;82113702225;liemhuifang@gmail.com;1;JNE Shipping REG ( 1 - 2 hari );10000;99.135;Indigo (Roy Kiyoshi)
6579;29/04/2018;Yayat Cumiyati;Hotel elista jln. Raya pantura muntur-losarang Ds. Muntur Kec. Losarang Kab. Indramayu;Losarang, Kab. Indramayu;45253;82126770325;yayatcumiyati866@gmail.com;1;JNE Shipping REG ( 3 - 6 hari );18000;107.192;Indigo (Roy Kiyoshi)
6580;29/04/2018;Anis Toharoh;Ngampel kulon ngemplak rt.1 rw.4;Ngampel, Kab. Kendal;51357;89631035855;anistoharoh22@gmail.com;1;JNE Shipping REG ( 3 - 6 hari );27000;116.147;Indigo (Roy Kiyoshi)
6582;29/04/2018;wahyu retnoningsih;Jl. Kepodang No. 67A Panjer Kebumen Jawa Tengah;Kebumen, Kab. Kebumen;54312;81384766436;retnoningsih03@gmail.com;2;JNE Shipping REG ( 2 - 3 hari );24000;147.385;Karena Aku Memilih-Mu
6583;29/04/2018;Widya Retno Lestari;Jl. Gajah Mada No. 012 RT03/RW02, Kel. Pasar Prabumulih II, Kec. Prabumulih Utara;Prabumulih, Kota Prabumulih;31121;82177051495;widyaretnolestari39@gmail.com;1;JNE Shipping REG ( 2 - 3 hari );33000;181.795;Indigo (Roy Kiyoshi) | Ardhan
6584;29/04/2018;Hasna Rahmawati Nugroho;Taman Tridaya Indah Blok F14/12A, Jl. anggrek V, RT/RW 06/10,kel. Tridaya sakti;Tambun Selatan, Kab. Bekasi;17510;81282523813;hasnarahmawatin@gmail.com;1;JNE Shipping REG ( 1 - 2 hari );9000;144.286;Paket Bundel Zaman Jigeum
6585;29/04/2018;LUTHFYA NILAM QADARWATI;JL. VETERAN IX KOMPLEK PLN NO. 38, RT 003 / RW 002;Kebomas, Kab. Gresik;61122;81230846386;ayuluthfya@yahoo.co.id;1;JNE Shipping REG ( 3 - 6 hari );30000;119.184;Indigo (Roy Kiyoshi)
6586;29/04/2018;Novi Johan;Jl.matraman jaya RT 10 RW 06 no24 Kel Pegangsaan kec.menteng Jakarta pusat;Menteng, Kota Administrasi Jakarta Pusat;1320;81296298344;novijohan86@gmail.com;1;JNE Shipping REG ( 1 - 2 hari );9000;98.158;Indigo (Roy Kiyoshi)
6587;29/04/2018;Tjong Elis;Jl. Taman golf 2 blok AG 4 no. 3 perumahan Modernland kel. Poris plawat indah .;Cipondoh, Kota Tangerang;15141;87771947989;artathian@gmail.com;1;JNE Shipping REG ( 1 - 2 hari );9000;98.192;Indigo (Roy Kiyoshi)
6589;29/04/2018;Neffi Artha;Perum bukit kencana jalan palem 2 rt 7rw 8. Bukit kencana jaya;Tembalang, Kota Semarang;50271;85802517488;neffiartha177@gmail.com;1;JNE Shipping REG ( 1 - 2 hari );18000;107.122;Indigo (Roy Kiyoshi)
6590;29/04/2018;Lidia Cynthia;Jalan Dinoyo Sekolahan 1 Nomor 20E Surabaya;Tegalsari, Kota Surabaya;601252;87853601222;thelidiacynthiadewi@gmail.com;1;JNE Shipping REG ( 1 - 2 hari );19000;172.458;Indigo (Roy Kiyoshi) | Ananta Prahadi
6591;29/04/2018;Maskanah Miswandono;JL. BISMA RAYA BLOK A NO 3-4 KEL PAPANGGO - SUNTER;Tanjung Priok, Kota Administrasi Jakarta Utara;14350;6,28569E+12;annagiwenk3012@gmail.com;1;JNE Shipping REG ( 1 - 2 hari );9000;98.147;Indigo (Roy Kiyoshi)
6592;29/04/2018;Ivan Saputra;Mulyosari Mas F12A;Mulyorejo, Kota Surabaya;60112;6,28231E+12;tanivansaputra27@gmail.com;1;JNE Shipping REG ( 1 - 2 hari );19000;108.117;Indigo (Roy Kiyoshi)
6593;29/04/2018;Prawira Hadinatha;Jln. Taman Wedasari no. 34X;Denpasar Barat, Kota Denpasar;80117;81337372399;31alfons1@gmail.com;2;JNE Shipping REG ( 1 - 2 hari );22000;200.135;Indigo (Roy Kiyoshi)
6594;29/04/2018;Dinda Widiastuti;Jalan Kair Gang H. Agen No.23 Rt 06 Rw 04 Kelurahan Ragunan Kecamatan Pasar Minggu 12550;Pasar Minggu, Kota Administrasi Jakarta Selatan;12550;85939880014;dindaawd@gmail.com;1;JNE Shipping REG ( 1 - 2 hari );9000;88.349;My Bastard Prince
6595;29/04/2018;Ngurah Bagus;Jalan pulau nusa panida 38 Dauh puri kelod, Denpasar Barat, Bali 80114;Denpasar Barat, Kota Denpasar;80114;81238496653;ngurahbagus086@gmail.com;1;JNE Shipping REG ( 1 - 2 hari );22000;111.173;Indigo (Roy Kiyoshi)
6596;29/04/2018;Riyanti Riyanti;sukorame, mangunan, dlingo, bantul, jogjakarta;Dlingo, Kab. Bantul;55783;87862400806;Riyanti209@gmail.com;1;JNE Shipping REG ( 2 - 3 hari );21000;110.108;Indigo (Roy Kiyoshi)
6597;29/04/2018;Gita Ramayani;jl kedondong 1 NO 1 rt:011 rw:009 KEL.RAWAMANGUN KEC.PULOGADUNG;Pulo Gadung, Kota Administrasi Jakarta Timur;13220;82115046997;Dekyuli24@gmail.com;1;JNE Shipping REG ( 1 - 2 hari );9000;98.108;Indigo (Roy Kiyoshi)
6598;29/04/2018;agus eko;pt. bpr shinta bhakti wedi, jl. raya wedi bayat km.1 wedi klaten jawatengah 57462;Wedi, Kab. Klaten;57461;8562869420;aeguseko@gmail.com;1;JNE Shipping REG ( 3 - 6 hari );27000;116.171;Indigo (Roy Kiyoshi)
6599;29/04/2018;Ros yati;Jalan pembangunan IV Kelurahan karangsari rt/rw 01/012 belakang musholla al-maghfiroh (kontrakkan bapak aris);Neglasari, Kota Tangerang;15121;89662320823;rosyati691@gmail.com;1;JNE Shipping REG ( 1 - 2 hari );9000;70.736;Karena Aku Memilih-Mu
6600;29/04/2018;Istiqomah Istiqomah;Jl. Pulogadung no. 17, kawasan industri pulogadung, jakarta, RT. 10 RW 03, Rawa Terate, Cakung, East jakarta city, jakarta;Cakung, Kota Administrasi Jakarta Timur;13920;6,28158E+12;hikmahikma2580@gmail.com;1;JNE Shipping REG ( 1 - 2 hari );9000;98.103;Indigo (Roy Kiyoshi)
6601;29/04/2018;Dini Amalia;Perum Canggu Permai, Jl. Krisna 1 Kos Puri Abadi No. F10, Banjar Tandeg, Kecamatan Kuta Utara, Kabupaten Badung, Bali;Kuta, Kab. Badung;80361;85847635671;amaliadini43@gmail.com;1;JNE Shipping REG ( 1 - 2 hari );22000;111.141;Indigo (Roy Kiyoshi)
6602;29/04/2018;Tantri Dianawati;Perumahan Baleendah Permai, Jl. Padi Endah V No. 30, RT. 04 RW. 25;Baleendah, Kab. Bandung;40375;8562144125;tantri.dianawati@gmail.com;1;JNE Shipping REG ( 1 - 2 hari );11000;100.190;Indigo (Roy Kiyoshi)
6603;29/04/2018;Yacinta Amanda;Blok K4 nomor 12A, Kel. Pejuang Taman Harapan Baru, Harapan Indah, Kota Bekasi;Medan Satria, Kota Bekasi;13731;85899483084;adeinoy.ya@gmail.com;1;JNE Shipping REG ( 1 - 2 hari );9000;98.177;Indigo (Roy Kiyoshi)
6604;29/04/2018;Nita Setyawati;Jalan Singosari No. 1 Podosugih, Pekalongan Barat;Pekalongan Barat, Kota Pekalongan;51111;85746695946;nita861991@gmail.com;1;JNE Shipping REG ( 2 - 3 hari );21000;110.157;Indigo (Roy Kiyoshi)
6605;30/04/2018;Femelia Femelia;Komp. City walk;Lubuk Baja, Kota Batam;29444;85668008018;liyae_ng@yahoo.com;1;JNE Shipping REG ( 1 - 2 hari );28000;117.155;Indigo (Roy Kiyoshi)
6606;30/04/2018;Yulia PermaiSari;Jl. Matraman dalam 2 RT.008 RW 08 No.14 Kel.Pegangsaan;Menteng, Kota Administrasi Jakarta Pusat;10320;87889072562;julia_sks@yahoo.co.id;3;JNE Shipping REG ( 1 - 2 hari );18000;285.185;Indigo (Roy Kiyoshi)
6607;30/04/2018;Yayat Cumiyati;Hotel elista jln. Raya pantura muntur-losarang Ds. Muntur Kec. Losarang Kab. Indramayu;Losarang, Kab. Indramayu;45253;82126770325;endahtrirahayu478@gmail.com;1;JNE Shipping REG ( 3 - 6 hari );18000;107.174;Indigo (Roy Kiyoshi)
6608;30/04/2018;Melinda Shandra Devi;Jalan Gunung Agung gang II no.32 ( sebelah utara puskesmas II Denpasar utara);Denpasar, Kota Denpasar;80119;81547418638;melindashandra31@gmail.com;1;JNE Shipping REG ( 1 - 2 hari );22000;111.143;Indigo (Roy Kiyoshi)
6609;30/04/2018;Yosefin Anggraeni;Jalan Kaliurang KM 7,2 Perumahan Kaliurang Pratama No A5;Ngaglik, Kab. Sleman;88855;81294644287;purple.bollard@gmail.com;1;JNE Shipping REG ( 2 - 3 hari );21000;110.141;Indigo (Roy Kiyoshi)
6610;30/04/2018;Febry Pohan1;SMK NEGERI 13 MEDAN, JL. SERUWAI NO 257;Medan Labuhan, Kota Medan;20252;81360020291;febry1@gmail.com;1;JNE Shipping REG ( 1 - 2 hari );30000;119.187;Indigo (Roy Kiyoshi)
6611;30/04/2018;Fransis Chen;Kebon Jeruk Baru A3/2;Kebon Jeruk, Kota Administrasi Jakarta Barat;11530;81219181792;imutgirl888@yahoo.com;1;JNE Shipping REG ( 1 - 2 hari );9000;98.116;Indigo (Roy Kiyoshi)
6614;30/04/2018;Dian Puspita;Komplek Hankam Jalan Salak No: B-51 RT.008/RW.03;Ciracas, Kota Administrasi Jakarta Timur;13730;8128405424;dian.puspita.99@gmail.com;1;JNE Shipping REG ( 1 - 2 hari );9000;98.195;Indigo (Roy Kiyoshi)
6615;30/04/2018;Wahsyurni Assa;Jl. Percetakan Negara 2 No. 24 Rt 10 Rw 06;Johar Baru, Kota Administrasi Jakarta Pusat;10560;8811121522;assawahsyurni02@gmail.com;1;JNE Shipping REG ( 1 - 2 hari );9000;98.131;Indigo (Roy Kiyoshi)
6616;30/04/2018;Siti Fatimah;Kp. Kali jeruk RT 02 RW 03 No 94 Desa kalijaya Kec. Cikarang barat Kab. Bekasi;Cikarang Barat, Kab. Bekasi;CIKARANG;85715972122;sitifatimah6897@gmail.com;1;JNE Shipping REG ( 1 - 2 hari );9000;98.198;Indigo (Roy Kiyoshi)
6617;30/04/2018;Yacinta Amanda;Blok K4 nomor 12A, Kel. Pejuang Taman Harapan Baru, Harapan Indah, Kota Bekasi;Medan Satria, Kota Bekasi;13731;85899483084;adeinoy.ya@gmail.com;1;JNE Shipping REG ( 1 - 2 hari );9000;98.142;Indigo (Roy Kiyoshi)
6618;30/04/2018;safira salma dhania;rt 2 rw 5 kauman, subah, kab. batang, Jawa Tengah;Subah, Kab. Batang;51262;82322827303;safirasalmada@gmail.com;1;JNE Shipping REG ( 3 - 6 hari );27000;107.652;Ikigai
6619;30/04/2018;Noviana Noviana;Jl. Anggur 2 No. 17-18 Blok B-24 RT02/RW07 Pondok Makmur, Kutabaru-Pasar Kemis, Tangerang 15561;PASAR KEMIS, Kab. Tangerang;15561;81212415214;fei.flipflop@gmail.com;1;JNE Shipping REG ( 1 - 2 hari );9000;98.195;Indigo (Roy Kiyoshi)
6620;30/04/2018;Fransiska Yuliana;Jl.Rawa Selatan IV Nomor 50a-50b Johar Baru, Jakarta Pusat;Johar Baru, Kota Administrasi Jakarta Pusat;10560;81290284667;fransiska.yulzz@gmail.com;1;JNE Shipping REG ( 1 - 2 hari );9000;98.116;Indigo (Roy Kiyoshi)
6621;30/04/2018;Tiara Kusuma Wardani;jalan yayasan nurul huda rt 02/001 no 62 (belakang sd bantar gebang 3);Bantar Gebang, Kota Bekasi;17151;82113498471;tiarakusuma2798@gmail.com;1;JNE Shipping REG ( 1 - 2 hari );9000;89.659;Ikigai
6622;30/04/2018;Sri Wahyuningsih;JL BLURU KIDUL NO 9 RT 01 RW 06 (PIJET TUSUK JARI H. ALI MUSTOFA) , BLURU SIDOARJO;Sidoarjo, Kab. Sidoarjo;61233;81233906281;Dekyuli24@gmail.com;1;JNE Shipping REG ( 1 - 2 hari );19000;108.112;Indigo (Roy Kiyoshi)
6623;30/04/2018;Siti Fatimah;Kp. Kali jeruk RT 02 RW 03 No 94 Desa kalijaya Kec. Cikarang barat Kab. Bekasi;Cikarang Barat, Kab. Bekasi;CIKARANG;85715972122;sitifatimah6897@gmail.com;1;JNE Shipping REG ( 1 - 2 hari );9000;98.195;Indigo (Roy Kiyoshi)
6624;30/04/2018;Agus Radiawati;Jl. Kenayoran utara no. 22 rt 01 rw 07;Kemayoran, Kota Administrasi Jakarta Pusat;10620;81513734208;a.radhiawati03@gmail.com;1;JNE Shipping REG ( 1 - 2 hari );9000;98.156;Indigo (Roy Kiyoshi)
6625;30/04/2018;Sekar Zuriath;Jl. Tanah Merdeka No. 7E RT. 06 RW. 06 Rambutan, Ciracas, Jakarta Timur.;Ciracas, Kota Administrasi Jakarta Timur;13830;8977235227;sekar.jeboo@gmail.com;1;JNE Shipping REG ( 1 - 2 hari );9000;64.181;Paket Pin BT21
6626;30/04/2018;Btari Saraswati;Jl cililitan besar no. 86 rt 03/ rw 09;Kramat Jati, Kota Administrasi Jakarta Timur;13640;87876027727;btarisrswt@gmail.com;1;JNE Shipping REG ( 1 - 2 hari );9000;64.141;Paket Pin BT21
6627;30/04/2018;Oka endah Sari;Jl. Belibis simpang tiga teluk kuantan Pondok pesantren Kh. Ahmad dahlan;Teluk Kuantan, Kab. Kuantan Singingi;29562;85265883866;okaendah@gmail.com;1;JNE Shipping REG ( 2 - 3 hari );39000;100.740;Karena Aku Memilih-Mu
6628;30/04/2018;Vita Nesti;Jln. Karah Agung No.45, Surabaya;Jambangan, Kota Surabaya;60232;82141589076;awajivieta@gmail.com;1;JNE Shipping REG ( 1 - 2 hari );19000;108.105;Indigo (Roy Kiyoshi)
6629;30/04/2018;Yeliana Marcius;Jl Davinci no 7 RT 54 RW 10;Kalidoni, Kota Palembang;30114;811787872;yeli77@yahoo.com;1;JNE Shipping REG ( 1 - 2 hari );22000;111.120;Indigo (Roy Kiyoshi)
6630;30/04/2018;Erika Teresia;PT. Arta Batrindo, Jl. Jembatan dua raya no. 11-i (gedung Win Goodride) sebelah asuransi sinarmas, jakarta Utara;Jakarta Utara, Kota Administrasi Jakarta Utara;14450;87786131310;erika@arta.co.id;1;JNE Shipping REG ( 1 - 2 hari );9000;98.178;Indigo (Roy Kiyoshi)
6631;30/04/2018;Riya Anti;sukorame, mangunan, dlingo, bantul, jogjakarta;Dlingo, Kab. Bantul;55783;87739344486;Dekyuli24@gmail.com;1;JNE Shipping REG ( 2 - 3 hari );21000;110.193;Indigo (Roy Kiyoshi)
6632;30/04/2018;Galuh Pratiwi;Jl. Kopi rt.007 rw.03, Gandaria, Pekayon, Pasar Rebo, Jakarta Timur.;Pasar Rebo, Kota Administrasi Jakarta Timur;13710;85876853426;ggpratiwi.530@gmail.com;1;JNE Shipping REG ( 1 - 2 hari );9000;89.730;Ikigai
6633;30/04/2018;Henny Ria Rachmawati;Jl Taman Palem Lestari Blok CC-1 no.5 Cengkareng Jakarta Barat;Cengkareng, Kota Administrasi Jakarta Barat;11730;8970623831;henirahmawati0301@gmail.com;1;JNE Shipping REG ( 1 - 2 hari );9000;80.655;KPOP Zaman Jigeum: BTS feat Another Idol + Pin BT21
6636;30/04/2018;Siti Fatimah;Green wood E9 no 15 citraland;Sambikerep, Kota Surabaya;60219;85707252966;sitycantiksekali99999@gmail.com;1;JNE Shipping REG ( 1 - 2 hari );19000;108.134;Indigo (Roy Kiyoshi)
6637;30/04/2018;zakia kholifah;jl.anyar rt 07/rw 002 no.44;Jagakarsa, Kota Administrasi Jakarta Selatan;12610;89668469186;zakiakholifah85@gmail.com;1;JNE Shipping REG ( 1 - 2 hari );9000;80.739;KPOP Zaman Jigeum: Wanna One
6638;30/04/2018;Elvi Anna;Jl. Cakalang 6 no. 46b Rt. 5 Rw. 1 kelurahan polowijen;Blimbing, Kota Malang;65125;6,28233E+12;Elviana1711@gmail.com;1;JNE Shipping REG ( 1 - 2 hari );22000;111.115;Indigo (Roy Kiyoshi)
6639;30/04/2018;LINGA SHARIRA SHAMASA;JL. BUKIT TERATAI I/237 RT.08 RW.19 PERUMNAS SENDANG MULYO SEMARANG;Tembalang, Kota Semarang;50272;87832805559;lingasharira@yahoo.co.id;1;JNE Shipping REG ( 1 - 2 hari );18000;107.180;Indigo (Roy Kiyoshi)
6640;30/04/2018;Siti Fatimah;Green wood E9 no 15 citraland;Sambikerep, Kota Surabaya;60219;85707252966;sitycantiksekali99999@gmail.com;1;JNE Shipping REG ( 1 - 2 hari );19000;108.001;Indigo (Roy Kiyoshi)
6641;30/04/2018;Tri Wulandari;JI.Permata IV,Lot.CA-4,Karawang International Industrial City (KIIC) kecamatan Telukjambe Timur,Karawang 41361,West Java,INDONESIA;Telukjambe Timur, Kab. Karawang;41361;85225277953;triwulandari.9203@yahoo.co.id;1;JNE Shipping REG ( 1 - 2 hari );10000;99.144;Indigo (Roy Kiyoshi)
6642;30/04/2018;Ida nur oktavia;perum taman walet blok sm9 no 11 kec. pasar kemis kel. sindangsari kab. tangerang;PASAR KEMIS, Kab. Tangerang;15560;81298890675;idanuroktavia@ymail.com;1;JNE Shipping REG ( 1 - 2 hari );9000;98.139;Indigo (Roy Kiyoshi)
6643;30/04/2018;Tri Melia Damaiyanti;Jalan Palembang-Jambi Km. 72 No. 15 Jati Mulyo RT 015 RW 002 Desa Bukit;Betung, Kab. Banyuasin;30758;81377826800;trimeliaaa@gmail.com;1;JNE Shipping REG ( 3 - 6 hari );42000;91.641;40 Hari: Takdir Itu Bernama Hidup dan Mati - Edisi TTD
6645;30/04/2018;Titania Manurung;Jalan Haji Selong (warung makan bude moes) RT 013 RW 01 no. 99 Duri Kosambi;Cengkareng, Kota Administrasi Jakarta Barat;11705;82282826421;titaniamanurung@yahoo.com;1;JNE Shipping REG ( 1 - 2 hari );9000;64.177;Paket Pin BT21
6646;30/04/2018;verawaty dewi;kost putra hasanul basri. jl.intan sari 2 rt.20.rw.4 kelurahan sungai besar .banjarbaru .kalsel.70714;BanjarBaru, Kota Banjarbaru;70714;6,28135E+12;verawaty_liavio@yahoo.co.d;1;JNE Shipping REG ( 1 - 2 hari );33000;122.168;Indigo (Roy Kiyoshi)
6647;30/04/2018;Dwi Rochmawati;Desa Kirig Rt 02 Rw 02;Mejobo, Kab. Kudus;83843175417;83843175417;drc1703@gmail.com;1;JNE Shipping REG ( 3 - 6 hari );27000;116.149;Indigo (Roy Kiyoshi)
6648;30/04/2018;Juswanto Juswanto;Ruko citraland blok C 20-22;Semarang, Kota Semarang;14460;6,28211E+12;felicia.jyj@gmail.com;1;JNE Shipping REG ( 1 - 2 hari );18000;107.163;Indigo (Roy Kiyoshi)
6649;30/04/2018;Yashica Kho;Jalan marsekal surya dharma, Pergudangan Bandara mas blok a3/03, belakang kantor pemasaran rumah yang ada bangku kayuny;Neglasari, Kota Tangerang;15127;8,95323E+11;shicayash@gmail.com;1;JNE Shipping REG ( 1 - 2 hari );9000;98.167;Indigo (Roy Kiyoshi)
